{
  "screenImage": {
    "alt": "describe the image",
    "src": "../../assets/images/fpo_16x9.png",
    "credit": null
  },

  "screenContent": {
    "event": true,
    "valign": "center",
    "title": "Agents of Change",
    "type": "Exhibit",
    "summary": "The Founding and Impact of the African-American Student Union",
    "event": {
      "date": {
        "colorInverted": false,
        "outline": true,
        "text": "Through Friday, Oct 12th, 2018"
      },
      "location": "Baker Library, Harvard Business School"
    },
    "link": {
      "href": "#",
      "text": "bit.ly/aofcexhibit",
      "info": "learn more about The Founding and Impact of the African-American Student Union",
      "withArrow": false,
      "cssClass": "",
      "toggleText": ""
    }
  }
}