{
  "screenOverlay": {
    "theme": "dark",
    "blur": false,
    "image": {
      "alt": "describe the image",
      "src": "../../assets/images/sample/resource-not-found-page.jpg"
    },
    "title": "Screen Overlay",
    "summary": {
      "compHeading": null,
      "seeAllLink": null,
      "theme": "",
      "align": "",
      "elements": [{
        "path": "@atoms/rich-text-elements/_paragraph.twig",
        "data": {
          "paragraph" : {
            "text": "You can get access to the Washington Post online using your Harvard ID."
          }
        }
      },{
        "path": "@atoms/rich-text-elements/_paragraph.twig",
        "data": {
          "paragraph" : {
            "text": "See details at<br /><a href=\"#\">bit.ly/harvardwapo</a>"
          }
        }
      }]
    }
  },

  "screenFooter": {
    "linkStyle": "large",
    "summary": "Discover more of what the library offers",
    "link": {
      "href": "#",
      "text": "library.harvard.edu",
      "info": "Harvard library Website",
      "withArrow": false,
      "cssClass": "",
      "toggleText": ""
    }
  }
}
