{
  "pageHeader":{
    "align": "left",
    "bgNarrow": "",
    "bgWide": "",
    "light": false,
    "eyebrow": "optional eyebrow with optional icon",
    "eyebrowIcon": "@atoms/svg-icons/svg-services-icon.twig",
    "title": {
      "icon": "",
      "pageTitle": {
        "text": "Title for a page"
      }
    },
    "subText": {
      "text": "Sub Text goes here - Lorem ipsum dolor sit amet, consectetur adipisicing."
    },
    "description": "Description text - Lorem ipsum dolor sit amet, consectetur adipisicing elit. Perspiciatis eum, commodi! Delectus quisquam ut quis excepturi beatae similique possimus, quod expedita suscipit labore consequuntur, sint fugiat corporis a repellat voluptas.",
    "storyMeta": {
      "authorName": "Author Name",
      "date": "October 17, 2017"
    }
  }
}
