{
  "fancyNumberedList": {
    "id": "GUID132874802347",
    "bgNarrow": "",
    "bgWide": "",
    "compHeading": {
      "text": "Fancy Numbered List",
      "align": ""
    },
    "centered": true,
    "richText": {
      "elements": [{
        "path": "@atoms/rich-text-elements/_paragraph.twig",
        "data": {
          "paragraph" : {
            "text": "We’re committed to building a website that is intuitive to use and endlessly helpful. We developed these four guiding principles to help keep us on the right path."
          }
        }
      }]
    },
    "items": [{
      "text": "<p>Step 1 Lorem ipsum dolor sit amet, <b>consectetur adipisicing</b> elit.</p>"
    }, {
      "text": "<p>Step 2 Lorem ipsum <b>dolor sit amet</b>, consectetur adipisicing elit.</p>"
    }, {
      "text": "<p>Step 3 <b>Lorem ipsum</b> dolor sit amet, consectetur adipisicing elit.</p>"
    }, {
      "text": "<p>Step 4 Lorem ipsum dolor sit amet, <b>consectetur adipisicing elit</b>.</p>"
    }]
  }
}
