{
  "illustratedList": {
    "compHeading": {
      "text": "Illustrated List",
      "align": ""
    },
    "numFeatured": 4,
    "theme": "",
    "seeAll": {
      "href": "#",
      "text": "See all items",
      "info": "Expands to show more items",
      "withArrow": true,
      "cssClass": "",
      "toggleText": "See fewer features"
    },
    "items": [{
      "icon": {
        "align": "",
        "alt": "item 1",
        "height": "54",
        "width": "54",
        "src": "../../assets/images/svg-icons/amenities-tech-media.svg",
        "sizes": null,
        "srcset": null
      },
      "text": "Lorem ipsum dolor sit amet. Tech/Media Equipment Loan"
    },{
      "icon": {
        "align": "",
        "alt": "item 1", 
        "height": "54",
        "width": "54",
        "src": "../../assets/images/svg-icons/amenity-groupstudyrooms.svg",
        "sizes": null,
        "srcset": null
      },
      "text": "Group Study Spaces"
    },{
      "icon": {
        "align": "",
        "alt": "item 1", 
        "height": "54",
        "width": "54",
        "src": "../../assets/images/svg-icons/amenity-cafe.svg",
        "sizes": null,
        "srcset": null
      },
      "text": "Café Onsite"
    },{
      "icon": {
        "align": "",
        "alt": "item 1", 
        "height": "54",
        "width": "54",
        "src": "../../assets/images/svg-icons/amenities-media.svg",
        "sizes": null,
        "srcset": null
      },
      "text": "Media Studio"
    },{
      "icon": null,
      "text": "Lorem ipsum dolor sit amet, consectetur adipisicing elit. Beatae, cupiditate."
    },{
      "icon": null,
      "text": "Lorem ipsum dolor."
    },{
      "icon": null,
      "text": "Lorem ipsum dolor sit amet, consectetur."
    },{
      "icon": null,
      "text": "Lorem ipsum dolor sit amet, consectetur."
    }]
  }
}
