{
  "contactInfoBanner": {
    "compHeading": {
      "text":"Contact",
      "align":""
    },
    "photo": true,
    "image": {
      "align": "",
      "alt": "alt text",
      "height": "150",
      "width": "150",
      "src":"../../assets/images/sample/dumbarton-oaks.png"
    },
    "name": "Fellowship Coordinating Office",
    "office": true,
    "address": {
      "address": "3 James Street\nCambridge, MA 02138",
      "directions": {
        "href":"https://www.google.com/maps/place/3+James+St,+Cambridge,+MA+02138",
        "text": "Directions",
        "info": "get directions to this location",
        "withArrow": false,
        "cssClass": "",
        "toggleText": ""
      }
    },
    "contact": {
      "emails": [{
        "label": "",
        "link": {
          "href": "mailto:fellowships@harvard.edu",
          "text": "fellowships@harvard.edu",
          "info": "",
          "label": "email:"
        }
      }],
      "phones": [{
        "label": "",
        "text": "617-495-5355",
        "href": "tel:+16174955355"
      }],
      "website": [{
        "internal": false,
        "href": "#",
        "text": "Website",
        "info": "describe this link",
        "withArrow": false,
        "cssClass": "",
        "toggleText": ""
      }]
    }
  }
}
