{
  "illustratedContent": {
    "bgNarrow": "",
    "bgWide": "",
    "theme": "light",
    "compHeading": {
      "text": "Illustrated Content",
      "align": ""
    },
    "description": {
      "compHeading": null,
      "seeAllLink": null,
      "elements": [{
        "path": "@atoms/rich-text-elements/_paragraph.twig",
        "data": {
          "paragraph" : {
            "text": "Lorem ipsum dolor sit amet, consectetur adipisicing elit. Omnis repellat quo vitae tempora mollitia at a quaerat facere, soluta reprehenderit saepe quae vero culpa, laborum dolore asperiores, quam sapiente quisquam."
          }
        }
      }]
    },
    "cta": {
      "href": "#",
      "info": "",
      "text": "Button",
      "type": "",
      "size": "",
      "theme": "secondary",
      "outline": false,
      "cssClass": "",
      "icon": ""
    }
  }
}
