{
  "filterByType": {
    "label": "Filters:",
    "items": [{
      "name": "filter-sample",
      "value": "filter-1",
      "label": "Filter1",
      "checked": true
    },{
      "name": "filter-sample",
      "value": "filter-2",
      "label": "Filter2",
      "checked": false
    },{
      "name": "filter-sample",
      "value": "filter-3",
      "label": "Filter3",
      "checked": false
    }]
  }
}
