{
  "sortByType": {
    "label": "Filters:",
    "items": [{
      "name": "filter-sample",
      "value": "filter-1",
      "label": "Surprise Me!",
      "checked": false,
      "icon": "gift"
    },{
      "name": "filter-sample",
      "value": "filter-2",
      "label": "Newest",
      "checked": true
    },{
      "name": "filter-sample",
      "value": "filter-3",
      "label": "A-Z",
      "checked": false
    }]
  }
}
