{
  "figure": {
    "caption": "This is the photo caption.",
    "credit": "Fig. - A view of the pulpit rock in Norway.",
    "align": "",
    "image": {
      "align": "",
      "alt": "alt text", 
      "height": "253",
      "width": "450",
      "sizes": [
        "100vw"
      ],
      "srcset": [
        "../../assets/images/fpo_16x9.png 1170w",
        "../../assets/images/fpo_16x9_800w.png 800w",
        "../../assets/images/fpo_16x9_450w.png 450w"
      ]
    }
  } 
}
