{
  "columns": {
    "showGap": false,
    "columnContents": [{
      "path": "@organisms/global/columns.twig",
      "data": {
        "columns": {
          "columnContents": [{
            "path": "@atoms/text/placeholder.twig",
            "data": {
              "placeholder": {
                "text": "This is component one"
              }
            }
          },{
            "path": "@atoms/text/placeholder.twig",
            "data": {
              "placeholder": {
                "text": "This is component two"
              }
            }
          }]
        }
      }
    },{
      "path": "@atoms/text/placeholder.twig",
      "data": {
        "placeholder": {
          "text": "This is component three"
        }
      }
    }]
  }
}
