{
  "siteAlertBanner": {
    "icon": "@atoms/svg-icons/svg-alert-bell.twig",
    "label": "Label:",
    "message": {
      "compHeading": null,
      "seeAllLink": null,
      "theme": "",
      "align": "",
      "elements": [{
        "path": "@atoms/rich-text-elements/_paragraph.twig",
        "data": {
          "paragraph" : {
            "text": "Message to be displayed that includes <a href=\"#\">Links</a>",
            "cssClass": ""
          }
        }
      }]
    }
  }
}
