{
  "utilityNav": {
    "backButton": {
      "href": "",
      "info": "close dropdown menu",
      "text": "back",
      "type": "button",
      "size": "small",
      "theme": "",
      "outline": false,
      "cssClass": "js-utility-nav-back-button"
    },
    "items": [{
      "name": "hollis",
      "icon": "@atoms/svg-icons/svg-user-icon.twig",
      "href": "#",
      "text": "MyHOLLIS",
      "info": "Sign in to HOLLIS"
    },{
      "name": "ask",
      "icon": "@atoms/svg-icons/svg-feedback-base.twig",
      "href": "",
      "text": "Ask",
      "info": "Ask a Librarian, contact us with your question"
    },{
      "name": "spaces",
      "icon": "@atoms/svg-icons/svg-lamp.twig",
      "href": "#",
      "text": "Spaces",
      "info": "Browse library spaces across campus"
    },{
      "name": "hours",
      "icon": "@atoms/svg-icons/svg-clock.twig",
      "href": "",
      "text": "Hours",
      "info": "Library locations and hours"
    },{
      "name": "Search website or HOLLIS catalog",
      "icon": "@atoms/svg-icons/svg-magnifying-glass.twig",
      "href": "",
      "text": "",
      "info": "Search website or HOLLIS catalog"
    }],
    "featuredLibraries": {
      "today": {
        "colorInverted": false,
        "outline": false,
        "text": "Day, Month Date, Year"
      },
      "allLocations": "see all locations",
      "more": {
        "href": "#",
        "text": "Hours for all 25+ locations",
        "info": "",
        "withArrow": true,
        "cssClass": ""
      },
      "items": [{
        "name": "Name",
        "status": "status",
        "time": "time AM - time PM",
        "href": "#"
      },{
        "name": "Name",
        "status": "status",
        "time": "time AM - time PM",
        "href": "#"
      },{
        "name": "Name",
        "status": "status",
        "time": "time AM - time PM",
        "href": "#"
      }]
    },
    "ask": {
      "level": "",
      "compHeading": {
        "trueno": "Ask",
        "lora": "a Librarian"
      },
      "singleInputForm": {
        "action": "#",
        "method": "",
        "theme": "",
        "label": {
          "text": "Search FAQs on Ask a Librarian website",
          "inputId": "text-input",
          "theme": "inline"
        },
        "helperText": "",
        "input": {
          "theme": "inline",
          "hiddenLabel": true,
          "labelText": "",
          "required": true,
          "id": "text-input",
          "name": "text-input",
          "type": "text",
          "width": "",
          "maxlength": "",
          "pattern": "",
          "placeholder": "Try \"printer help\" or \"Zotero\"",
          "errorMsg": ""
        },
        "button": {
          "href": "",
          "info": "",
          "text": "Go",
          "type": "submit",
          "size": "small",
          "theme": "inline",
          "outline": false
        }
      },
      "linkedList": {
        "bullets": false,
        "dividers": false,
        "compHeading": {
          "text": "More help options",
          "level": "",
          "theme": "",
          "align": ""
        },
        "patternHeading": null,
        "seeAll": null,
        "items": [{
          "type": "",
          "link": {
            "href": "https://library.harvard.edu/services-tools/library-liaisons",
            "text": "Find my subject liaison",
            "info": "",
            "withArrow": false,
            "cssClass": "",
            "toggleText": ""
          },
          "image": null
        },{
          "type": "",
          "link": {
            "href": "https://harvard.az1.qualtrics.com/jfe/form/SV_5vY47R1IAq8Uhgh",
            "text": "Request a research appointment",
            "info": "",
            "withArrow": false,
            "cssClass": "",
            "toggleText": ""
          },
          "image": null
        }]
      },
      "button": {
          "href": "#",
          "info": "",
          "text": "Let's Chat!",
          "type": "button",
          "size": "",
          "theme": "",
          "outline": true,
          "cssClass": "",
          "icon": "",
          "iconRight": "@atoms/svg-icons/svg-external-link.twig"
      },
      "chatButton": {
        "id": "libchat_90b85bdd1489a074045c2519ad2fc1a5"
      }
    },
    "search": {
      "action": "../../patterns/05-pages-search-directory/05-pages-search-directory.html",
      "method": "GET",
      "theme": "clear",
      "label": {
        "text": "Search website or HOLLIS catalog",
        "inputId": "utility-nav-search-input",
        "theme": "hidden"
      },
      "helperText": "",
      "input": {
        "theme": "inline",
        "hiddenLabel": true,
        "labelText": "",
        "required": true,
        "id": "utility-nav-search-input",
        "name": "keywords",
        "type": "text",
        "width": "",
        "maxlength": "",
        "pattern": "",
        "placeholder": "",
        "errorMsg": ""
      },
      "button": {
        "href": "",
        "info": "",
        "text": "Search",
        "type": "submit",
        "size": "small",
        "theme": "inline",
        "outline": false
      },
      "dropdown":true
    },
    "searchHelperText": {
      "compHeading": null,
      "seeAllLink": null,
      "elements": [{
        "path": "@atoms/rich-text-elements/_paragraph.twig",
        "data": {
        "paragraph" : {
          "text": "Search website or HOLLIS catalog"
          }
        }
      }]
    }
  }
}
