{
  "accordionItem": {
    "level": "",
    "title": "Accordion Item",
    "description": {
      "elements": [{
        "path": "@atoms/rich-text-elements/_paragraph.twig",
        "data": {
          "paragraph" : {
            "text": "This is long or complicated text that will appear with the accordon is open. Lorem ipsum dolor sit amet, consectetur adipisicing elit. Lorem ipsum dolor sit amet, consectetur adipisicing elit. Accusantium quis doloribus expedita facilis illum aperiam."
          }
        }
      },{
        "path": "@atoms/rich-text-elements/_heading.twig",
        "data": {
          "heading":{
            "level":4,
            "text":"Heading"
          }
        }
      },{
        "path": "@atoms/rich-text-elements/_list.twig",
        "data": {
          "list": {
            "ordered":false,
            "items":[{
              "text":"Unordered list item"
              },{
              "text":"Unordered list item"
              },{
              "text":"Unordered list item"
              }]
          }
        }
      }]
    }
  }
}
