{
  "categoryTeaser": {
    "level": "",
    "icon": "@atoms/svg-icons/svg-services-icon-inner.twig",
    "eyebrow": "eyebrow",
    "title": "Category Teaser",
    "external": true,
    "description": {
      "compHeading": null,
      "seeAllLink": null,
      "theme": "",
      "elements": [{
        "path": "@atoms/rich-text-elements/_paragraph.twig",
        "data": {
          "paragraph" : {
            "text": "this is a short description"
          }
        }
      }]
    }
  }
}
