{
  "animations": {
    "linkTag": {
      "href": "#",
      "text": "this is a basic link",
      "info": "",
      "withArrow": false,
      "cssClass": "",
      "toggleText": "",
      "label": ""
    },
    "button": {
      "href": "",
      "info": "",
      "text": "Button",
      "type": "button",
      "size": "",
      "theme": "",
      "outline": false,
      "cssClass": "",
      "icon": ""
    }
  }
}
