{
  "patternCta": {
    "title": "Pattern CTA with Icons",
    "description": "this is dsecription text",
    "links": [{
      "href": "#",
      "text": "",
      "info": "follow us on Facebook",
      "icon": "@atoms/svg-icons/svg-social-facebook.twig"
    },{
      "href": "#",
      "text": "",
      "info": "follow us on Twitter",
      "icon": "@atoms/svg-icons/svg-social-twitter.twig"
    }]
  }
}
