{
  "richText": {
    "compHeading": {
      "text": "Rich Text using Smaller Font",
      "align": ""
    },
    "seeAllLink": {
      "href": "#",
      "text": "See all",
      "info": "",
      "withArrow": true
    },
    "theme": "small",
    "elements": [{
      "path": "@atoms/rich-text-elements/_paragraph.twig",
      "data": {
        "paragraph" : {
          "text": "<b>This is a paragraph element</b>. Lorem ipsum dolor sit amet, consectetur adipisicing elit.  <a href=\"#\">This is a link within a paragraph</a>. Lorem ipsum dolor sit amet, consectetur adipisicing elit. Provident, nemo? Explicabo itaque possimus dignissimos? Repudiandae tempore, fugit illum? Iure error omnis eveniet eius iste molestias."
        }
      }
    },{
      "path": "@atoms/rich-text-elements/_heading.twig",
      "data": {
        "heading" : {
          "level": 2,
          "text": "Heading Level 2"
        }
      }
    },{
      "path": "@atoms/media/image.twig",
      "data": {
        "image": {
          "align": "left",
          "alt": "alt text",
          "src": "../../assets/images/fpo_16x9.png",
          "height": "450",
          "width": "800"
        }
      }
    },{
      "path": "@atoms/rich-text-elements/_paragraph.twig",
      "data": {
        "paragraph" : {
          "text": "<i>This is another paragraph element</i>. Lorem ipsum dolor sit amet, consectetur adipisicing elit. Lorem ipsum dolor sit amet, consectetur adipisicing elit. Accusantium quis doloribus expedita facilis illum aperiam?  <a href=\"#\">This is a link within a paragraph</a>. Lorem ipsum dolor sit amet, consectetur adipisicing elit. Provident, nemo? Explicabo itaque possimus dignissimos?"
        }
      }
    },{
      "path": "@atoms/rich-text-elements/_paragraph.twig",
      "data": {
        "paragraph" : {
          "text": "<i>This is another paragraph element</i>. Lorem ipsum dolor sit amet, consectetur adipisicing elit. Lorem ipsum dolor sit amet, consectetur adipisicing elit. Accusantium quis doloribus expedita facilis illum aperiam?  <a href=\"#\">This is a link within a paragraph</a>. Lorem ipsum dolor sit amet, consectetur adipisicing elit. Provident, nemo? Explicabo itaque possimus dignissimos?"
        }
      }
    },{
      "path": "@molecules/text/quote.twig",
      "data": {
        "quote" : {
          "align": "left",
          "text": "Testimonial from a client or quote from source that you want highlighted.",
          "author": "Jane Doe",
          "title": "Jane Doe's Title"
        }
      }
    },{
      "path": "@atoms/rich-text-elements/_heading.twig",
      "data": {
        "heading" : {
          "level": 3,
          "text": "Heading Level 3"
        }
      }
    },{
      "path": "@atoms/rich-text-elements/_list.twig",
      "data": {
        "list": {
          "ordered": false,
          "items": [{
            "text": "This is a list item in an unordered list"
          },{
            "text": "An unordered list is a list in which the sequence of items is not important. Sometimes, an unordered list is a bulleted list. And this is a long list item in an unordered list that can wrap onto a new line."
          },{
            "text": "Lists can be nested inside of each other",
            "subitems" : [{
              "text":"This is a nested list item"
            },{
              "text":"This is another nested list item in an unordered list"
            }]
          },{
            "text":"This is the last list item"
          }]
        }
      }
    },{
      "path": "@atoms/rich-text-elements/_heading.twig",
      "data": {
        "heading" : {
          "level": 2,
          "text": "Heading Level 2"
        }
      }
    },{
      "path": "@atoms/rich-text-elements/_paragraph.twig",
      "data": {
        "paragraph" : {
          "text": "<b>This is a paragraph element</b>. Lorem ipsum dolor sit amet, consectetur adipisicing elit.  <a href=\"#\">This is a link within a paragraph</a>. Lorem ipsum dolor sit amet, consectetur adipisicing elit. Provident, nemo? Explicabo itaque possimus dignissimos? Repudiandae tempore, fugit illum? Iure error omnis eveniet eius iste molestias."
        }
      }
    },{
      "path": "@atoms/media/figure.twig",
      "data": {
        "figure": {
          "credit": "Fig. - A view of the pulpit rock in Norway.",
          "align": "right",
          "image": {
            "align": "",
            "alt": "alt text",
            "src": "../../assets/images/fpo_16x9_450w.png",
            "height": "253",
            "width": "450"
          }
        }
      }
    },{
      "path": "@atoms/rich-text-elements/_paragraph.twig",
      "data": {
        "paragraph" : {
          "text": "<i>This is another paragraph element</i>. Lorem ipsum dolor sit amet, consectetur adipisicing elit. Lorem ipsum dolor sit amet, consectetur adipisicing elit. Accusantium quis doloribus expedita facilis illum aperiam?  <a href=\"#\">This is a link within a paragraph</a>. Lorem ipsum dolor sit amet, consectetur adipisicing elit. Provident, nemo? Explicabo itaque possimus dignissimos?"
        }
      }
    },{
      "path": "@atoms/rich-text-elements/_paragraph.twig",
      "data": {
        "paragraph" : {
          "text": "<i>This is another paragraph element</i>. Lorem ipsum dolor sit amet, consectetur adipisicing elit. Lorem ipsum dolor sit amet, consectetur adipisicing elit. Accusantium quis doloribus expedita facilis illum aperiam?  <a href=\"#\">This is a link within a paragraph</a>. Lorem ipsum dolor sit amet, consectetur adipisicing elit. Provident, nemo? Explicabo itaque possimus dignissimos?"
        }
      }
    },{
      "path": "@atoms/media/figure.twig",
      "data": {
        "figure": {
          "credit": "Fig. - A view of the pulpit rock in Norway.",
          "align": "",
          "image": {
            "align": "",
            "alt": "alt text",
            "sizes": [
              "100vw"
            ],
            "srcset": [
              "../../assets/images/fpo_16x9.png 1170w",
              "../../assets/images/fpo_16x9_800w.png 800w",
              "../../assets/images/fpo_16x9_450w.png 450w"
            ]
          }
        }
      }
    },{
      "path": "@atoms/rich-text-elements/_paragraph.twig",
      "data": {
        "paragraph" : {
          "text": "<i>This is another paragraph element</i>. Lorem ipsum dolor sit amet, consectetur adipisicing elit. Lorem ipsum dolor sit amet, consectetur adipisicing elit. Accusantium quis doloribus expedita facilis illum aperiam?  <a href=\"#\">This is a link within a paragraph</a>. Lorem ipsum dolor sit amet, consectetur adipisicing elit. Provident, nemo? Explicabo itaque possimus dignissimos?"
        }
      }
    },{
      "path": "@atoms/media/figure.twig",
      "data": {
        "figure": {
          "credit": "Fig. - A view of the pulpit rock in Norway.",
          "align": "left",
          "image": {
            "align": "",
            "alt": "alt text",
            "src": "../../assets/images/fpo_16x9_450w.png",
            "height": "253",
            "width": "450"
          }
        }
      }
    },{
      "path": "@atoms/rich-text-elements/_paragraph.twig",
      "data": {
        "paragraph" : {
          "text": "<i>This is another paragraph element</i>. Lorem ipsum dolor sit amet, consectetur adipisicing elit. Lorem ipsum dolor sit amet, consectetur adipisicing elit. Accusantium quis doloribus expedita facilis illum aperiam?  <a href=\"#\">This is a link within a paragraph</a>. Lorem ipsum dolor sit amet, consectetur adipisicing elit. Provident, nemo? Explicabo itaque possimus dignissimos?"
        }
      }
    },{
      "path": "@atoms/rich-text-elements/_paragraph.twig",
      "data": {
        "paragraph" : {
          "text": "<i>This is another paragraph element</i>. Lorem ipsum dolor sit amet, consectetur adipisicing elit. Lorem ipsum dolor sit amet, consectetur adipisicing elit. Accusantium quis doloribus expedita facilis illum aperiam?  <a href=\"#\">This is a link within a paragraph</a>. Lorem ipsum dolor sit amet, consectetur adipisicing elit. Provident, nemo? Explicabo itaque possimus dignissimos?"
        }
      }
    }]
  }
}
