{
  "userLink": {
    "image": {
      "src": "../../assets/images/fpo_square.png",
      "align": "",
      "alt": "alt text", 
      "height": "100",
      "width": "100"
    },
    "imageLink": null,
    "link": {
      "href": "#",
      "text": "This is a link to a user profile",
      "info": "",
      "withArrow": false,
      "cssClass": "",
      "toggleText": ""
    },
    "text": ""
  }
}
