{
  "input": {
    "theme": "",
    "hiddenLabel": false,
    "labelText": "Text Input",
    "required": true,
    "id": "text-input",
    "name": "text-input",
    "type": "text",
    "width": "",
    "maxlength": "",
    "pattern": "",
    "placeholder": "type something",
    "errorMsg": "you did not type something"
  }
}
