{
  "input": {
    "theme": "inline",
    "hiddenLabel": true,
    "labelText": "",
    "required": true,
    "id": "text-input",
    "name": "text-input",
    "type": "text",
    "width": "",
    "maxlength": "",
    "pattern": "",
    "placeholder": "type something",
    "errorMsg": ""
  }
}
