{
  "preContent": {
    "breadcrumb": {
      "items": [{
        "href": "#",
        "text": "Home",
        "info": ""
      },{
        "href": "#",
        "text": "Breadcrumb",
        "info": ""
      }]
    },

    "pageHeader": {
      "title": {
        "icon": "@atoms/svg-icons/svg-header-calendar.twig",
        "pageTitle": {
          "text": "Title for a page"
        }
      },
      "subText": {
        "text": "Sub text rendered below a page title"
      },
      "storyMeta": null
    }
  },

  "eventDirectory": {
    "requestUrl": "//dev-harvardlib.pantheonsite.io",
    "assetsUrl": "../..",

    "featuredEvents": {
      "align": "",
      "level": "",
      "compHeading": {
        "text": "Exhibits",
        "align": ""
      },
      "description": "",
      "see_more": "",
      "seeAll": {
        "href": "#",
        "text": "See all exhibits",
        "info": "See all exhibits",
        "withArrow": true
      },
      "eventTeasers": [{
        "title": "Look But Don't Touch",
        "subText": "Tactile Illusions on Maps",
        "level": "",
        "isLink": true,
        "date": {
          "text": "Through Feb 17",
          "outline": true,
          "colorInverted": true
        },
        "time": "7:00 - 9:00 PM",
        "location": "Ice Cube, Cabot Science Library",
        "linkIcon": "",
        "link": null,
        "overlayPattern": true,
        "image": {
          "src": "../../assets/images/sample/Sample08.png",
          "alt": "placeholder image",
          "width": "190",
          "height": "107",
          "href": "#"
        },
        "learnMore": {
          "href": "#",
          "info": "Click here for more details about this event",
          "text": "See More",
          "type": "",
          "size": "",
          "theme": "",
          "outline": false,
          "cssClass": ""
        }
      },{
        "title": "Rethinking Enlightenment",
        "subText": "Forgotten Women Writers of 18th-Century France",
        "level": "",
        "isLink": true,
        "date": {
          "text": "Through Apr 17",
          "outline": true,
          "colorInverted": true
        },
        "time": "7:00 - 9:00 PM",
        "location": "Ice Cube, Cabot Science Library",
        "linkIcon": "",
        "link": null,
        "overlayPattern": true,
        "image": {
          "src": "../../assets/images/sample/Sample08.png",
          "alt": "placeholder image",
          "width": "190",
          "height": "107",
          "href": "#"
        },
        "learnMore": {
          "href": "#",
          "info": "Click here for more details about this event",
          "text": "See More",
          "type": "",
          "size": "",
          "theme": "",
          "outline": false,
          "cssClass": ""
        }
      },{
        "title": "Our City, Our People",
        "subText": "ICA Teens Exhibition",
        "level": "",
        "isLink": true,
        "date": {
          "text": "Through Jan 29",
          "outline": true,
          "colorInverted": true
        },
        "time": "7:00 - 9:00 PM",
        "location": "Ice Cube, Cabot Science Library",
        "linkIcon": "",
        "link": null,
        "overlayPattern": true,
        "image": {
          "src": "../../assets/images/sample/Sample08.png",
          "alt": "placeholder image",
          "width": "190",
          "height": "107",
          "href": "#"
        },
        "learnMore": {
          "href": "#",
          "info": "Click here for more details about this event",
          "text": "See More",
          "type": "",
          "size": "",
          "theme": "",
          "outline": false,
          "cssClass": ""
        }
      }]
    }
  }
}
