{
  "breadcrumbs": {
    "light": false,
    "alignLeft": true,
    "items": [{
      "href": "#",
      "text": "Home",
      "info": ""
    },{
      "href": "#",
      "text": "...",
      "info": ""
    },{
      "href": "#",
      "text": "Events",
      "info": ""
    }]
  },

  "galleryHeader": {
    "pageHeader":{
      "bgNarrow": "",
      "bgWide": "",
      "light": false,
      "eyebrow": "type of event",
      "title": {
        "image": "",
        "pageTitle": {
          "text": "Event Detail"
        }
      },
      "subText": {
        "text": "Sub Text about this page"
      },
      "description": "a short description about the library. Lorem ipsum dolor sit amet, consectetur adipisicing elit. Laboriosam, consectetur?",
      "storyMeta": null
    },
    "hoursToday": null,
    "megaIcon": null,
    "imageGallery": {
      "items": [{
        "figure": {
          "caption": "This is the photo caption.",
          "credit": "",
          "align": "",
          "image": {
            "align": "",
            "alt": "alt text",
            "height": "900",
            "width": "1200",
            "src": "",
            "sizes": [
              "100vw"
            ],
            "srcset": [
              "../../assets/images/sample/Cabot1-620x466.png 620w",
              "../../assets/images/fpo_4x3.png 600w"
            ]
          }
        }
      },{
        "figure": {
          "caption": "This is the photo caption.",
          "credit": "",
          "align": "",
          "image": {
            "align": "",
            "alt": "alt text",
            "height": "313",
            "width": "450",
            "src": "",
            "sizes": [
              "100vw"
            ],
            "srcset": [
              "../../assets/images/sample/fine-arts-library.png 450w"
            ]
          }
        }
      },{
        "figure": {
          "caption": "This is the photo caption.",
          "credit": "",
          "align": "",
          "image": {
            "align": "",
            "alt": "alt text",
            "height": "900",
            "width": "1200",
            "src": "",
            "sizes": [
              "100vw"
            ],
            "srcset": [
              "../../assets/images/fpo_1200x900.png 1200w",
              "../../assets/images/fpo_4x3.png 600w"
            ]
          }
        }
      },{
        "figure": {
          "caption": "This is the photo caption.",
          "credit": "",
          "align": "",
          "image": {
            "align": "",
            "alt": "alt text",
            "height": "466",
            "width": "620",
            "src": "",
            "sizes": [
              "100vw"
            ],
            "srcset": [
              "../../assets/images/sample/Cabot1-620x466.png 620w",
              "../../assets/images/fpo_4x3.png 600w"
            ]
          }
        }
      }]
    },

    "hours": {
      "label": {
        "text": "Day, Month Date, Year",
        "outline":  false
      },
      "schedule": {
        "rows": [{
          "label": "General",
          "text": "24 Hours"
        },{
          "label": "Specific Area 1",
          "text": "9:00 AM - 5:00 PM"
        },{
          "label": "Specific Area 2",
          "text": "1:00 PM - 10:00 PM"
        }]
      }
    },

    "registration": {
      "button": {
        "href": "#",
        "info": "Register for Event ...",
        "text": "Register Now",
        "type": "button",
        "size": "",
        "theme": "secondary",
        "outline": false,
        "cssClass": "",
        "icon": ""
      },
      "type": "Who can register",
      "restricted": false,
      "sponsoringLibrary": "Lamont Library",
      "calendar": {
        "href": "#ics-file",
        "text": "Save to your calendar",
        "info": "Save this event to your calendar",
        "withArrow": false,
        "cssClass": "",
        "toggleText": ""
      }
    },

    "location": {
      "background": true,
      "compHeading": {
        "text": "Location",
        "align": ""
      },
      "items": [{
        "department": "Harvard Library Communications Office",
        "address": "Harvard Yard, Harvard University\nCambridge, MA 02138",
        "directions": {
          "href": "https://www.google.com/maps/place/Harvard+Yard/@42.3743935,-71.1162572,15z/data=!4m5!3m4!1s0x0:0xba29e000bdf1e890!8m2!3d42.3743935!4d-71.1162572",
          "text": "Directions",
          "info": "Get directions to this event",
          "withArrow": false,
          "cssClass": "",
          "toggleText": ""
        },
        "website": {
          "href": "#",
          "text": "Website",
          "info": "visit the website for this event",
          "withArrow": false,
          "cssClass": "",
          "toggleText": ""
        }
      }]
    }
  },

  "eventText": {
    "compHeading": null,
    "seeAllLink": null,
    "elements": [{
      "path": "@atoms/media/image.twig",
      "data": {
        "image": {
          "align": "right",
          "alt": "alt text",
          "src": "../../assets/images/fpo_16x9.png",
          "height": "450",
          "width": "800"
        }
      }
    },{
      "path": "@atoms/rich-text-elements/_paragraph.twig",
      "data": {
        "paragraph" : {
          "text": "Do you have AV collections and wonder about future digitization priorities in the Harvard Library? Come hear about a large-scale AV survey for library collections across Harvard. This open meeting will address the purpose, methodology, and timeline of the upcoming Harvard Library AV Survey."
        }
      }
    }]
  },

  "presenterSponsors": {
    "columnContents": [{
      "path": "@organisms/lists/linked-list.twig",
      "data": {
        "linkedList": {
          "bullets": false,
          "dividers": true,
          "patternHeading": {
            "level": "",
            "text": "Pattern Heading"
          },
          "items": [{
            "type": "user",
            "link": {
              "href": "#",
              "text": "first link",
              "info": ""
            },
            "image": {
              "src": "../../assets/images/sample/kerry.png",
              "align": "",
              "alt": "Kerry",
              "height": "100",
              "width": "100"
            }
          },{
            "type": "",
            "link": {
              "href": "#",
              "text": "second link",
              "info": ""
            },
            "image": null
          },{
            "type": "",
            "link": {
              "href": "",
              "text": "Lorem ipsum dolor sit amet.",
              "info": ""
            },
            "image": null
          }]
        }
      }
    },{
      "path": "@organisms/lists/linked-list.twig",
      "data": {
        "linkedList": {
          "bullets": false,
          "dividers": true,
          "patternHeading": {
            "level": "",
            "text": "Pattern Heading"
          },
          "items": [{
            "type": "user",
            "link": {
              "href": "#",
              "text": "first link",
              "info": ""
            },
            "image": {
              "src": "../../assets/images/sample/kerry.png",
              "align": "",
              "alt": "Kerry",
              "height": "100",
              "width": "100"
            }
          },{
            "type": "",
            "link": {
              "href": "#",
              "text": "second link",
              "info": ""
            },
            "image": null
          },{
            "type": "",
            "link": {
              "href": "",
              "text": "Lorem ipsum dolor sit amet.",
              "info": ""
            },
            "image": null
          }]
        }
      }
    }]
  }
}
