{
  "fancyLinkList": {
    "maxItems": 4,
    "level": "",
    "compHeading": {
      "text": "Fancy Link List",
      "align": ""
    },
    "description": {
      "compHeading": null,
      "seeAllLink": null,
      "theme": "",
      "elements": [{
        "path": "@atoms/rich-text-elements/_paragraph.twig",
        "data": {
          "paragraph" : {
            "text": "Optional description - Lorem ipsum dolor sit amet, consectetur adipisicing elit. Cupiditate cum eius praesentium ut quos. A dolor vel vero rerum pariatur placeat, provident! Totam quis delectus id est accusamus blanditiis amet."
          }
        }
      }]
    },
    "items": [{
      "external": false,
      "text": "Fancy Link Internal",
      "href": "#",
      "info": "helpful information about this link"
    },{
      "external": true,
      "text": "Fancy Link External",
      "href": "#",
      "info": "helpful information about this link"
    },{
      "external": false,
      "text": "Fancy Link Internal",
      "href": "#",
      "info": "helpful information about this link"
    },{
      "external": true,
      "text": "Fancy Link External",
      "href": "#",
      "info": "helpful information about this link"
    }],
    "seeAll": {
      "href": "#",
      "text": "See More",
      "info": "Show or hide more items",
      "withArrow": true,
      "cssClass": "js-accordion-link",
      "toggleText": "Show Less"
    }
  }
}
