{
  "linkedList": {
    "bullets": true,
    "items": [{
      "link": {
        "href": "#",
        "text": "first link",
        "info": ""
      }
    },{
      "link": {
        "href": "#",
        "text": "second link",
        "info": ""
      }
    },{
      "link": {
        "href": "#",
        "text": "third link",
        "info": ""
      }
    }]
  }
}
