{
  "staffDirectoryGrid":{
    "items":[{
      "name": {
        "href": "#",
        "text": "Abby Elizabeth Conway",
        "info": "",
        "withArrow": false,
        "cssClass": "",
        "toggleText": ""
      },
      "email": {
        "href": "mailto:abby_conway@harvard.edu",
        "text": "abby_conway@harvard.edu",
        "info": "",
        "withArrow": false,
        "cssClass": "",
        "toggleText": ""
      },
      "jobTitle": "",
      "image": {
        "src": "../../assets/images/sample/abby.png",
        "href": "#"
      }
    },{
      "name": {
        "href": "#",
        "text": "Claire DeMarco",
        "info": "",
        "withArrow": false,
        "cssClass": "",
        "toggleText": ""
      },
      "email": {
        "href": "mailto:claire_demarco@harvard.edu",
        "text": "claire_demarco@harvard.edu",
        "info": "",
        "withArrow": false,
        "cssClass": "",
        "toggleText": ""
      },
      "jobTitle": "Associate Director of Digital Strategies and Innovation",
      "image": null
    },{
      "name": {
        "href": "#",
        "text": "Amy Deschenes",
        "info": "",
        "withArrow": false,
        "cssClass": "",
        "toggleText": ""
      },
      "email": {
        "href": "mailto:amy_deschenes@harvard.edu",
        "text": "amy_deschenes@harvard.edu",
        "info": "",
        "withArrow": false,
        "cssClass": "",
        "toggleText": ""
      },
      "jobTitle": "Head of UX & Digital Accessibility and some other cool things to make this a really long title",
      "image": {
        "src": "../../assets/images/sample/amy.png",
        "href": "#"
      }
    },{
      "name": {
        "href": "#",
        "text": "Enrique Diaz",
        "info": "",
        "withArrow": false,
        "cssClass": "",
        "toggleText": ""
      },
      "email": null,
      "jobTitle": "Designer",
      "image": {
        "src": "../../assets/images/sample/enrique.png",
        "href": "#"
      }
    }]
  }

}
