{
  "notificationBar": {
    "button":"",
    "message": "We're in beta! Please have a look around and <a href=\"#\">tell us what you think</a>.",
    "align":"center",
    "theme":"gray"
  },
  "headerChild": {
    "theme": "teal",
    "title": "<span>Harvard</span> Digital Collections",
    "href":"../../patterns/05-pages-home/05-pages-digital-collections.twig",
    "logo": {
      "href": "../../patterns/05-pages-home/05-pages-home.html",
      "info": "Harvard Library",
      "image": {
        "align": "",
        "alt": "Harvard Library Logo",
        "src": "../../assets/images/logo.svg",
        "height": "24",
        "width": "270"
      }
    }
  },
  "preContent":{
    "homeHeadingChild": {
      "bgNarrow": "../../assets/images/sample/search-banner-800x730.png",
      "bgWide": "../../assets/images/sample/search-banner-1700x730.png",
      "titleSmall": "",
      "titleLarge": "Harvard",
      "titleSmall2": "Digital Collections",
      "titleLarge2": "",
      "helperText": {
        "compHeading": null,
        "seeAllLink": null,
        "elements": null
      },
      "source": {
        "theme": "light",
        "href": "#",
        "text": "View Item Details",
        "icon": "@atoms/svg-icons/svg-header-collection.twig"
      },
      "library": "",
      "singleInputForm": {
        "action": "../../patterns/05-pages-search-listing/05-pages-search-listing.html",
        "method": "GET",
        "theme": "clear",
        "label": {
          "text": "enter a keyword to search",
          "inputId": "search-banner-input",
          "theme": "hidden"
        },
        "helperText": "",
        "input": {
          "theme": "inline",
          "hiddenLabel": true,
          "labelText": "",
          "required": true,
          "id": "search-banner-input",
          "name": "search-banner-input",
          "type": "text",
          "width": "",
          "maxlength": "",
          "pattern": "",
          "placeholder": "Search over 6 million digitized items",
          "errorMsg": ""
        },
        "button": {
          "href": "",
          "info": "",
          "text": "Search",
          "type": "submit",
          "size": "small",
          "theme": "inline",
          "outline": false
        }
      },
      "callout":{
        "level": "",
        "compHeading": {
          "text": "We're in Beta!",
          "align": ""
        },
        "seeAllLink": null,
        "theme": "",
        "elements": [{
          "path": "@atoms/rich-text-elements/_paragraph.twig",
          "data": {
            "paragraph" : {
              "text": "Thanks for trying out our new site. There might be a few glitches, but we wanted to let you test it out ASAP."
            }
          }
        },{
          "path": "@atoms/rich-text-elements/_paragraph.twig",
          "data": {
            "paragraph" : {
              "text": "Please <a href=\"#\">tell us what you think</a>."
            }
          }
        }]
      }
    }
  },
  "pageContent":{
    "iconPromo": {
      "compHeading": {
        "text": "Create lists and save searches",
        "align": ""
      },
      "theme": "",
      "icon": "@atoms/svg-icons/svg-star-gradient-yellow.twig",
      "description": "Save items to your lists and manage your search history, all from your account.",
      "content": null,
      "button": {
        "href": "#",
        "info": "",
        "text": "Go to my account",
        "type": "button",
        "size": "small",
        "theme": "",
        "outline": false,
        "cssClass": ""
      }
    },
    "itemHighlights":{
      "maxItems": "6",
      "level": "",
      "compHeading": {
        "text": "Item Highlights",
        "align": "left"
      },
      "description": "",
      "moreHighlights": "",
      "seeAll": {
        "href": "#",
        "text": "See all items",
        "info": "See more items related to this page",
        "withArrow": true,
        "cssClass": "",
        "toggleText": ""
      },
      "surprise": "",
      "overlayPromos": [{
        "level": 2,
        "title": "Item Highlight 1",
        "subTitle": "1956",
        "library": "Library Name",
        "image": {
          "src":"https://picsum.photos/315/445"
        },
        "link": {
          "href": "#",
          "info": "Read more link text"
        }
      },{
        "level": 2,
        "title": "Item Highlight 2",
        "subTitle": "1881",
        "library": "Library Name",
        "image": {
          "src":"https://picsum.photos/300/400"
        },
        "link": {
          "href": "#",
          "info": "Read more link text"
        }
      },{
        "level": 2,
        "title": "Item Highlight 3",
        "subTitle": "1777",
        "library": "Library Name",
        "image": {
          "src":"https://picsum.photos/301/403"
        },
        "link": {
          "href": "#",
          "info": "Read more link text"
        }
      },{
        "level": 2,
        "title": "Item Highlight 4",
        "subTitle": "2012",
        "library": "Library Name",
        "image": {
          "src":"https://picsum.photos/302/406"
        },
        "link": {
          "href": "#",
          "info": "Read more link text"
        }
      },{
        "level": 2,
        "title": "Item Highlight 5",
        "subTitle": "1689",
        "library": "Library Name",
        "image": {
          "src":"https://picsum.photos/303/409"
        },
        "link": {
          "href": "#",
          "info": "Read more link text"
        }
      },{
        "level": 2,
        "title": "Item Highlight 6",
        "subTitle": "1874",
        "library": "Library Name",
        "image": {
          "src":"https://picsum.photos/304/412"
        },
        "link": {
          "href": "#",
          "info": "Read more link text"
        }
      }]
    },
    "relatedServices":{
      "level": "",
      "compHeading": {
        "text": "Related Services & Tools",
        "align": ""
      },
      "description": "",
      "seeAll": {
        "href": "#",
        "text": "See all services & tools",
        "info": "See more services and tools related to this page",
        "withArrow": true,
        "cssClass": "",
        "toggleText": ""
      },
      "items": [{
        "level": "",
        "icon": "@atoms/svg-icons/svg-services-icon-inner.twig",
        "eyebrow": "Service",
        "title": "Reproductions",
        "description": {
          "compHeading": null,
          "seeAllLink": null,
          "theme": "",
          "elements": [{
            "path": "@atoms/rich-text-elements/_paragraph.twig",
            "data": {
              "paragraph" : {
                "text": "A single short sentence describing what this service or tool is, and why it’s valuable to our target audience."
              }
            }
          }]
        }
      },{
        "level": "",
        "icon": "@atoms/svg-icons/svg-tool-icon.twig",
        "eyebrow": "tool",
        "title": "HOLLIS Images",
        "description": {
          "compHeading": null,
          "seeAllLink": null,
          "theme": "",
          "elements": [{
            "path": "@atoms/rich-text-elements/_paragraph.twig",
            "data": {
              "paragraph" : {
                "text": "A single short sentence describing what this service or tool is, and why it’s valuable to our target audience."
              }
            }
          }]
        }
      },{
        "level": "",
        "icon": "@atoms/svg-icons/svg-tool-icon.twig",
        "eyebrow": "tool",
        "title": "Archival Discovery",
        "description": {
          "compHeading": null,
          "seeAllLink": null,
          "theme": "",
          "elements": [{
            "path": "@atoms/rich-text-elements/_paragraph.twig",
            "data": {
              "paragraph" : {
                "text": "A single short sentence describing what this service or tool is, and why it’s valuable to our target audience."
              }
            }
          }]
        }
      }]
    },
    "collectionHighlights":{
      "compHeading": {
        "text": "Collection Highlights",
        "align": "left"
      },
      "moreHighlights": "",
      "seeAll": {
        "href": "#",
        "text": "See all collections",
        "info": "See more collections related to this page",
        "withArrow": true,
        "cssClass": "",
        "toggleText": ""
      },
      "overlayPromos": [{
        "level": 2,
        "title": "Chinese Rubbings",
        "subTitle": "Optional Subtitle could go here",
        "description": "Lorem ipsum dolor sit amet, consectetur adipisicing elit. Maiores, quo.",
        "image": {
          "src":"https://picsum.photos/500/350"
        },
        "link": {
          "href": "#",
          "info": "Read more link text"
        }
      },{
        "level": 2,
        "title": "Public Poet, Private Man",
        "subTitle": "Henry Wadsworth Longfellow at 200",
        "description": "Lorem ipsum dolor sit amet, consectetur adipisicing elit. Maiores, quo.",
        "image": {
          "src":"https://picsum.photos/500/351"
        },
        "link": {
          "href": "#",
          "info": "Read more link text"
        }
      },{
        "level": 2,
        "title": "Braction on the Laws and Customs of England",
        "subTitle": "",
        "description": "",
        "image": {
          "src":"https://picsum.photos/500/352"
        },
        "link": {
          "href": "#",
          "info": "Read more link text"
        }
      }]
    }
  }
}
