{
  "pageNotFound": {
    "image": "../../assets/images/sample/resource-not-found-page.jpg",

    "logo": {
      "href": "#",
      "info": "Harvard Library Home page",
      "image": {
        "align": "",
        "alt": "", 
        "src": "../../assets/images/logo-plain.svg",
        "height": "",
        "width": ""
      }
    },

    "title": {
      "text": "This item is not available to be viewed online."
    },

    "source": {
      "theme": "dark",
      "href": "#",
      "text": "Cheeky Monkey!",
      "icon": "@atoms/svg-icons/svg-header-collection.twig"
    },
    "library": {
      "href": "#",
      "text": "Andover-Harvard Theological Library"
    },

    "singleInputForm": null,

    "message": {
      "compHeading": null,
      "seeAllLink": null,
      "theme": "",
      "align": "",
      "elements": [{
        "path": "@atoms/rich-text-elements/_paragraph.twig",
        "data": {
          "paragraph" : {
            "text": "If you have questions or would like assistance, please <a href=\"#\">Ask a Librarian</a>.",
            "cssClass": ""
          }
        }
      }]
    }
  }
}
