{
  "searchDirectory": {
    "requestUrl": "http://harvard-primoprod.hosted.exlibrisgroup.com/PrimoWebServices/xservice/search/brief"
  },

  "searchHeading": {
    "titleSmall": "Search Results",
    "titleLarge": "",

    "singleInputForm": {
      "action": "#",
      "method": "",
      "theme": "clear",
      "label": {
        "text": "Enter a Keyword to search",
        "inputId": "search-page-input",
        "theme": "hidden"
      },
      "helperText": "",
      "input": {
        "theme": "inline",
        "hiddenLabel": true,
        "labelText": "",
        "required": true,
        "id": "search-page-input",
        "name": "search-page-input",
        "type": "text",
        "width": "",
        "maxlength": "",
        "pattern": "",
        "placeholder": "Kerry Conley",
        "errorMsg": ""
      },
      "button": {
        "href": "",
        "info": "",
        "text": "Search",
        "type": "submit",
        "size": "small",
        "theme": "inline",
        "outline": false
      }
    }
  },

  "leftSnippet": {
    "level": "3",
    "icon": "@atoms/svg-icons/svg-staff-round.twig",
    "subject": "staff",
    "title": "Kerry Conley",
    "description": "Director of Communications, Harvard Library Communications",
    "hours":null,
    "externalLink": "",
    "link": {
      "href": "#",
      "text": "View Profile",
      "info": ""
    },
    "hoursLink": null,
    "externalLink": null,
    "snippetImage": {
      "image": {
        "align": "",
        "alt": "",
        "src": "../../assets/images/sample/kerry.png"
      }
    }
  },

  "hollisResults": {
    "level": "",
    "icon": null,
    "eyebrow": null,
    "title": "",
    "description": "",
    "hollisResults":true
  },

  "searchResults": {
    "numShowing": "10",
    "totalNum": "105",
    "keyword": "Kerry Conley",

    "items": [{
      "theme": "clear",
      "level": "3",
      "icon": "@atoms/svg-icons/svg-how-to-minimal.twig",
      "subject": "how to",
      "title": "Get Research Help",
      "description": "Save yourself time with our research tips and quick links to popular tools.",
      "image": null,
      "link": {
        "href": "#",
        "info": ""
      }
    },{
      "theme": "clear",
      "level": "3",
      "icon": "@atoms/svg-icons/svg-tool-minimal.twig",
      "subject": "tool",
      "title": "Lean Library",
      "description": "Lorem ipsum dolor sit amet, consectetur adipiscing elit, sed do eiusmod tempor incididunt ut labore et dolore magna aliqua. Ut enim ad minim veniam",
      "image": null,
      "link": {
        "href": "#",
        "info": ""
      }
    },{
      "theme": "clear",
      "level": "3",
      "icon": "@atoms/svg-icons/svg-service-minimal.twig",
      "subject": "service",
      "title": "Scan & Deliver",
      "description": "Lorem ipsum dolor sit amet, consectetur adipiscing elit, sed do eiusmod tempor incididunt ut labore et dolore magna aliqua. Ut enim ad minim veniam",
      "image": null,
      "link": {
        "href": "#",
        "info": ""
      }
    },{
      "theme": "clear",
      "level": "3",
      "icon": "@atoms/svg-icons/svg-book.twig",
      "subject": "library",
      "title": "Houghton Library",
      "description": "Lorem ipsum dolor sit amet, consectetur adipiscing elit, sed do eiusmod tempor incididunt ut labore et dolore magna aliqua. Ut enim ad minim veniam",
      "image": null,
      "link": {
        "href": "#",
        "info": ""
      }
    },{
      "theme": "clear",
      "level": "3",
      "icon": "@atoms/svg-icons/svg-page-minimal.twig",
      "subject": "page",
      "title": "Harvard Library's Brand Guidelines",
      "description": "Lorem ipsum dolor sit amet, consectetur adipiscing elit, sed do eiusmod tempor incididunt ut labore et dolore magna aliqua. Ut enim ad minim veniam",
      "image": null,
      "link": {
        "href": "#",
        "info": ""
      }
    },{
      "theme": "clear",
      "level": "3",
      "icon": "@atoms/svg-icons/svg-header-calendar.twig",
      "subject": "exhibit",
      "title": "Lehman Brothers: A History, 1850-2008",
      "description": "The library has collections and specialists just for research related to the subject of biology.",
      "image": null,
      "link": {
        "href": "#",
        "info": ""
      }
    },{
      "theme": "clear",
      "level": "3",
      "icon": "@atoms/svg-icons/svg-collection-minimal.twig",
      "subject": "collection",
      "title": "John James Audobon Collection",
      "description": "Lorem ipsum dolor sit amet, consectetur adipiscing elit, sed do eiusmod tempor incididunt ut labore et dolore magna aliqua. Ut enim ad minim veniam",
      "image": null,
      "link": {
        "href": "#",
        "info": ""
      }
    },{
      "theme": "clear",
      "level": "3",
      "icon": "@atoms/svg-icons/svg-header-megaphone.twig",
      "subject": "story",
      "title": "Get Research Help",
      "description": "Save yourself time with our research tips and quick links to popular tools.",
      "image": null,
      "link": {
        "href": "#",
        "info": ""
      }
    },{
      "theme": "clear",
      "level": "3",
      "icon": "@atoms/svg-icons/svg-tool-minimal.twig",
      "subject": "tool",
      "title": "Lean Library",
      "description": "Lorem ipsum dolor sit amet, consectetur adipiscing elit, sed do eiusmod tempor incididunt ut labore et dolore magna aliqua. Ut enim ad minim veniam",
      "image": null,
      "link": {
        "href": "#",
        "info": ""
      }
    },{
      "theme": "clear",
      "level": "3",
      "icon": "@atoms/svg-icons/svg-header-megaphone.twig",
      "subject": "press replease",
      "title": "Biology",
      "description": "The library has collections and specialists just for research related to the subject of biology.",
      "image": null,
      "link": {
        "href": "#",
        "info": ""
      }
    }]
  },

  "otherTools": {
    "level": "",
    "compHeading": {
      "text": "Try Another Library Search Tool",
      "align": ""
    },
    "items": [{
      "level": "",
      "icon": "@atoms/svg-icons/svg-tool-icon.twig",
      "eyebrow": "Tool",
      "title": "Database Search",
      "description": {
        "compHeading": null,
        "seeAllLink": null,
        "theme": "",
        "elements": [{
          "path": "@atoms/rich-text-elements/_paragraph.twig",
          "data": {
            "paragraph" : {
              "text": "A catalog to find the specialized search engine that has what you need."
            }
          }
        }]
      }
    },{
      "level": "",
      "icon": "@atoms/svg-icons/svg-tool-icon.twig",
      "eyebrow": "Tool",
      "title": "HOLLIS for Archival Discovery",
      "description": {
        "compHeading": null,
        "seeAllLink": null,
        "theme": "",
        "elements": [{
          "path": "@atoms/rich-text-elements/_paragraph.twig",
          "data": {
            "paragraph" : {
              "text": "A catalog for exploring collection guides, finding aids, and inventories to locate unique materials in Harvard's special collections and archives."
            }
          }
        }]
      }
    },{
      "level": "",
      "icon": "@atoms/svg-icons/svg-tool-icon.twig",
      "eyebrow": "Tool",
      "title": "HOLLIS Images",
      "description": {
        "compHeading": null,
        "seeAllLink": null,
        "theme": "",
        "elements": [{
          "path": "@atoms/rich-text-elements/_paragraph.twig",
          "data": {
            "paragraph" : {
              "text": "A catalog and search tool for finding images from Harvard Library collections."
            }
          }
        }]
      }
    }]
  }
}
