{
  "preContent": {
    "breadcrumb": {
      "items": [{
        "href": "#",
        "text": "Home",
        "info": ""
      },{
        "href": "#",
        "text": "Breadcrumb",
        "info": ""
      }]
    },

    "pageHeader": {
      "title": {
        "icon": "@atoms/svg-icons/svg-header-services-tools.twig",
        "pageTitle": {
          "text": "Services & Tools"
        }
      },
      "subText": {
        "text": "Looking to enrich your research or save yourself time? We can help you with everything from picking a thesis topic to creating 360 video. Search our services and tools below, or try a How To guide."
      },
      "storyMeta": null
    }
  },

  "alphaDirectory": {
    "requestUrl": "//dev-harvardlib.pantheonsite.io",
    "assetsUrl": "../..",
    "pageType": "servicetool"
  },

  "staggeredTypeList": {
    "level": "",
    "compHeading": {
      "text": "Start with a how to",
      "align": "",
      "theme": "small"
    },
    "description": null,
    "items": [{
      "theme": "",
      "level": "",
      "subject": "How-To",
      "title": "New Type Promo Title",
      "description": "",
      "image": {
        "src":"../../assets/images/fpo_16x9.png"
      },
      "link": {
        "href": "#",
        "info": "Read more link text"
      }
    },{
      "theme": "",
      "level": "",
      "subject": "How-To",
      "title": "New Type Promo Title",
      "description": "",
      "image": {
        "src":"../../assets/images/fpo_16x9.png"
      },
      "link": {
        "href": "#",
        "info": "Read more link text"
      }
    },{
      "theme": "",
      "level": "",
      "subject": "How-To",
      "title": "New Type Promo Title",
      "description": "",
      "image": {
        "src":"../../assets/images/fpo_16x9.png"
      },
      "link": {
        "href": "#",
        "info": "Read more link text"
      }
    },{
      "theme": "",
      "level": "",
      "subject": "How-To",
      "title": "New Type Promo Title",
      "description": "",
      "image": {
        "src":"../../assets/images/fpo_16x9.png"
      },
      "link": {
        "href": "#",
        "info": "Read more link text"
      }
    }]
  }
}
